%YAML 1.1
%TAG !u! tag:unity3d.com,2011:
--- !u!1045 &1
EditorBuildSettings:
  m_ObjectHideFlags: 0
  serializedVersion: 2
  m_Scenes:
  - enabled: 1
    path: Assets/Scenes/Title.unity
    guid: 2cda990e2423bbf4892e6590ba056729
  - enabled: 1
    path: Assets/Scenes/Level1.unity
    guid: da4400a60e7454ecfb3287172889392e
  - enabled: 1
    path: Assets/Scenes/Level2.unity
    guid: dbf5c93ceaeee4cfe8f9ead91ad0e66c
  - enabled: 1
    path: Assets/Scenes/Level3.unity
    guid: bb9d7659350ef4ad8be721dbe5232771
  - enabled: 1
    path: Assets/Scenes/Win.unity
    guid: 80e9eb5ee25974c0db3efbf84e1cc4f0
  - enabled: 1
    path: Assets/Scenes/Gameover.unity
    guid: b85edb73a6a3544c3ab96024bf82b076
  m_configObjects: {}
